{
  "data": [
    {
      "id": 15,
      "gmtCreate": "2021-09-14 02:49:49",
      "gmtRecord": "2021-09-14 02:49:49",
      "appName": "todo",
      "environment": "prod",
      "host": "127.0.0.1",
      "traceId": "127000000001163153018853610021ed",
      "entranceDesc": "http://127.0.0.1:8080/todo"
    }
  ],
  "success": true,
  "message": null,
  "count": 14,
  "totalPage": 2,
  "pageSize": 10,
  "pageIndex": 1
}
